434699 76857 449
969120 458063 525
901968 695734 525
875037 942405 507
206365 418280 449
241341 118535 443
50163 642083 509
176275 871332 525
463049 904775 525
119401 171907 383
114261 829529 509
918952 90882 525
836826 969478 525
307666 528170 470
218215 519961 470
254411 314363 407
657884 41338 509
344197 585490 470
68227 375200 443
77290 38362 351
231181 211697 443
257423 856155 525
461122 105230 449
771586 28256 509
883382 408695 525
53781 441377 449
326648 541891 470
52808 503218 449
263595 83478 443
604511 482741 470
868216 30840 525
431962 590641 470
674414 30598 509
829611 455026 509
492961 151554 449
33651 330173 443
159455 573735 470
911224 165030 525
765777 512614 509
832991 258744 509
747952 861366 525
619054 319533 470
88149 184897 383
742882 725502 424
302119 585492 470
515060 161122 470
521583 748465 509
60364 730817 509
273001 888417 525
498656 830635 509
782931 790369 406
64576 771683 509
604183 714907 509
548772 207534 470
858125 562954 525
898073 587808 525
632607 149524 509
483241 601783 470
239214 374739 441
631066 563789 509
227052 406700 443
586413 584706 359
705821 209669 509
302622 953400 525
13525 545895 470
418782 368105 449
163991 566957 470
690451 57938 509
749826 875419 525
279661 145817 443
995651 518571 525
426586 375023 449
629282 452803 509
573999 415584 470
681987 215460 509
720102 647962 504
510404 508712 377
57445 223847 386
247648 999159 525
168189 946462 525
889951 563814 525
786887 384430 509
302695 253221 407
839410 625749 525
25429 394651 443
330 397265 443
900900 433525 525
592346 529469 452
872446 927744 476
693809 46180 509
884629 40405 525
582523 322364 470
293950 345839 384
557504 774366 509
957197 932626 507
413443 108830 449
788483 423189 509
343657 511607 449
607361 103282 470
346391 157611 443
66599 288285 443
879598 957153 507
491475 587138 470
772489 754461 468
533458 75650 470
647737 744271 504
721476 138498 509
341012 62438 443
499162 475421 426
431189 747932 509
706591 467156 509
820528 402094 509
505404 3479 449
621306 266042 470
150121 830463 509
786599 36746 509
415851 462325 444
981392 794517 525
589803 474018 470
931351 951540 507
786260 793538 437
990519 609819 525
723874 500616 509
964657 334049 525
355347 745376 509
191086 387730 443
72231 997169 525
17702 199789 383
94040 125738 354
426883 539842 470
973297 238164 525
920162 576895 525
103108 460974 449
736776 868526 525
129872 868642 525
553634 281459 470
60762 723346 509
160472 765598 509
577388 144253 470
195961 70387 383
327627 766383 509
900337 183507 525
755475 651731 504
957712 295402 525
572505 870116 525
394016 707761 509
299105 855118 525
751484 632286 504
590305 712192 509
432322 490423 444
581855 373530 470
200976 775422 509
423125 450422 418
71676 442285 449
852397 372826 525
355488 214519 443
166754 915784 525
660854 87486 509
330602 827962 509
357426 167033 443
580926 417100 470
89109 502392 449
264098 329458 407
660449 307504 509
443877 441542 356
459441 804415 509
187080 212166 373
652410 239825 509
12161 748380 509
194857 345173 443
359062 728834 509
649174 370618 509
851330 983666 507
877755 413134 525
226782 136451 386
975514 454127 525
686318 133364 509
479092 930682 525
568501 60926 470
661975 882972 525
210663 258034 443
145491 603128 470
341718 969954 525
624679 433392 470
949616 706462 525
778433 819189 468
892011 171021 525
899997 320940 525
298763 84436 443
496178 983854 525
878985 180647 525
733693 516277 509
46053 130238 354
905565 432887 525
750593 799903 468
279745 975514 525
589491 488693 470
434712 159760 449
392141 959318 525
13137 831439 509
