1 1 1
1 999999 525
50 500 144
617448 2553 470
499 501 111
572971 20179 470
501581 2356 449
94526 24251 351
58070 83855 351
276016 80061 443
46326 45925 252
845057 6074 525
637437 99230 509
7512 250926 443
301292 5900 443
576216 76540 470
952156 6798 525
102392 6252 351
860535 276376 525
317347 440479 449
905213 17886 525
972 565 179
7448 2537 262
5971 2094 238
581 2356 183
94526 219 351
5870 838553 525
16 80612 351
49955 24 324
84507 60749 351
6737 99230 351
7452 2526 262
16 65400 340
952156 69869 525
10392 65287 340
498446 37255 449
8635 276376 443
317347 44047 443
90521 17886 351
9737 555 262
61748 237 340
5971 79 238
5081 25650 282
9456 2419 262
98 8353 262
6016 8012 262
6396 4595 262
85057 67491 351
63737 9923 340
79512 226 351
192 5018 238
576216 7400 470
92156 6799 351
1392 62554 340
86035 2763 351
317347 44047 443
17 44 112
213 178 120
97 555 144
748 2 171
571 7 144
81 2565 209
946 24 179
988 353 179
66 801 171
636 45 144
57 674 145
637 992 179
792 22 171
192 18 125
216 70 125
96 67 116
132 624 144
865 2766 209
3347 4479 238
8 853 171
606 8 144
636 455 142
857 61 171
67 992 179
712 226 171
19 501 144
5716 7 238
56 699 145
392 6554 262
8035 2763 262
17347 4404 276
174 442 144
2134 1785 175
972 5554 238
7484 2124 262
481 2525 209
9546 244 262
44988 35553 324
566 8041 262
5636 45 238
5721 67445 340
64137 99245 351
7922 22544 279
1192 1855 180
116 705 171
9226 67 262
44132 5624 324
84465 42766 351
355347 44127 443
843 853 60
6206 8 262
34636 455 311
4457 61 238
637 992 179
71342 2246 340
139 50134 324
5716 7521 262
563 6499 262
392 65542 340
8035 276376 443
1744 4422 238
2134 1785 175
972 555423 470
17484 212432 383
154114 7124 375
11481 25253 282
229546 24423 386
33498 35553 311
56446 804133 509
563336 4524 470
5721 67445 340
64137 992 340
79223 22544 351
119234 1855 354
1136 7053 262
92264 6732 351
44132 562432 470
846532 4276 525
355347 44127 443
43 8 112
620 83 144
466 455 129
57 61 33
37 992 179
1342 246 182
19 501 144
516 752 171
56 649 145
392 6554 262
35 2763 209
1747 44347 324
14 44 112
2134 17 182
2 555 144
184 2124 182
15114 712 276
11481 2 268
2954 2442 217
3349 355 217
646 80413 351
56336 45 340
571 6744 262
617 992 179
92 225 125
11934 18 268
136 70534 340
224 673 145
4132 562 238
32 427 144
35723 44 324
4323 842 238
3420 2343 217
324466 44345 443
337 9932 262
1342 246 182
19 501 144
516 752 171
56 649 145
392 554 142
35 2763 209
1747 44347 324
14 44 112
2134 17 182
2 555 144
184 2124 182
15114 712 276
11481 2 268
2954 2442 217
3349 355 217
646 80413 351
56336 45 340
571 6744 262
617 992 179
92 225 125
11934 18 268
136 70534 340
224 673 145
4132 562 238
32 427 144
35723 44 324
2 2 2
3 4 8
5 6 9
7 8 17
